[gd_scene load_steps=4 format=3 uid="uid://bsnns634n57ys"]

[ext_resource type="Texture2D" uid="uid://bpsfhmk2x8yqs" path="res://Assets/Mr_hipocampo.png" id="1_3xa5t"]
[ext_resource type="Script" path="res://Scripts/player.gd" id="1_s7b7g"]

[sub_resource type="CircleShape2D" id="CircleShape2D_n0js7"]
radius = 6.0

[node name="Player" type="CharacterBody2D"]
script = ExtResource("1_s7b7g")

[node name="Sprite2D" type="Sprite2D" parent="."]
scale = Vector2(1.5, 1.5)
texture = ExtResource("1_3xa5t")

[node name="CollisionShape2D" type="CollisionShape2D" parent="."]
position = Vector2(-1, 5)
shape = SubResource("CircleShape2D_n0js7")
